<?xml version="1.0" standalone="no"?>
<!DOCTYPE svg PUBLIC "-//W3C//DTD SVG 20010904//EN"
 "http://www.w3.org/TR/2001/REC-SVG-20010904/DTD/svg10.dtd">
<svg version="1.0" xmlns="http://www.w3.org/2000/svg"
 width="302.000000pt" height="302.000000pt" viewBox="0 0 302.000000 302.000000"
 preserveAspectRatio="xMidYMid meet">
<metadata>
Created by potrace 1.11, written by Peter Selinger 2001-2013
</metadata>
<g transform="translate(0.000000,302.000000) scale(0.100000,-0.100000)"
fill="#000000" stroke="none">
<path d="M1361 2834 c-63 -74 -120 -134 -127 -134 -6 0 -83 23 -169 51 -117
38 -160 48 -165 39 -4 -7 -67 -193 -140 -414 -73 -220 -137 -407 -143 -414 -5
-7 -16 -11 -22 -8 -18 6 1 26 -271 -274 -22 -25 -86 -95 -142 -157 -56 -61
-102 -114 -102 -117 0 -9 211 -204 236 -219 21 -12 18 -25 -37 -204 -29 -93
-48 -168 -43 -172 8 -7 141 -50 654 -211 91 -29 171 -58 178 -65 11 -10 11
-17 3 -34 -7 -12 -9 -25 -6 -30 4 -8 380 -316 520 -428 l53 -42 24 28 c88 105
215 241 223 241 6 0 78 -22 160 -50 164 -55 165 -55 165 -38 0 10 158 501 244
758 31 95 31 95 63 93 33 -3 18 -18 289 287 17 19 68 76 112 125 45 50 81 95
81 100 0 6 -55 53 -121 105 -66 52 -123 100 -125 107 -3 7 21 89 52 184 32 94
53 174 49 178 -5 5 -144 49 -309 100 -165 51 -351 108 -412 127 -117 36 -122
40 -104 87 9 24 -5 39 -217 240 -280 264 -317 297 -328 296 -5 0 -60 -61 -123
-135z m-115 -195 c167 -56 302 -105 300 -108 -7 -13 -156 -469 -156 -477 0 -5
39 32 88 81 98 101 151 142 238 182 51 24 71 28 144 27 78 0 108 -8 360 -87
151 -47 339 -106 418 -131 79 -24 146 -47 149 -49 3 -3 -20 -79 -51 -169 -31
-90 -75 -218 -98 -285 -23 -68 -46 -123 -52 -123 -7 0 -113 34 -236 75 -123
41 -226 75 -228 75 -2 0 35 -37 83 -81 194 -184 258 -358 211 -574 -47 -217
-219 -755 -240 -755 -15 1 -594 195 -601 202 -3 3 13 48 36 99 54 123 105 264
114 315 11 69 -10 65 -79 -12 -205 -233 -335 -282 -581 -218 -269 69 -745 220
-745 236 0 5 27 82 61 171 78 209 123 339 139 405 7 32 17 52 24 49 31 -12
384 -127 389 -127 3 0 -26 30 -63 68 -128 128 -189 249 -197 394 -8 119 3 166
117 508 109 328 139 410 147 410 4 0 143 -46 309 -101z"/>
</g>
</svg>
